%YAML 1.1
%TAG !u! tag:unity3d.com,2011:
--- !u!74 &7400000
AnimationClip:
  m_ObjectHideFlags: 0
  m_CorrespondingSourceObject: {fileID: 0}
  m_PrefabInstance: {fileID: 0}
  m_PrefabAsset: {fileID: 0}
  m_Name: idle
  serializedVersion: 6
  m_Legacy: 0
  m_Compressed: 0
  m_UseHighQualityCurve: 1
  m_RotationCurves: []
  m_CompressedRotationCurves: []
  m_EulerCurves: []
  m_PositionCurves: []
  m_ScaleCurves: []
  m_FloatCurves: []
  m_PPtrCurves:
  - curve:
    - time: 0
      value: {fileID: 21300000, guid: 087a82ca46087edbcb949ba3081474d8, type: 3}
    - time: 0.083333336
      value: {fileID: 21300000, guid: f03eab46c5bafd5e2bcedd51844e122a, type: 3}
    - time: 0.16666667
      value: {fileID: 21300000, guid: 899c03119a50da90294cbe3f34d754e5, type: 3}
    - time: 0.25
      value: {fileID: 21300000, guid: a130ea9cbc7df48a48b5f2507c195f07, type: 3}
    - time: 0.33333334
      value: {fileID: 21300000, guid: 01afaf9cb6d9ddf1fa017506bcec0fcb, type: 3}
    - time: 0.41666666
      value: {fileID: 21300000, guid: f3984c2a9ce61015eaedb09825fd7b3b, type: 3}
    - time: 0.5
      value: {fileID: 21300000, guid: a653cb53232619f608b3cb8ba4e2cf5b, type: 3}
    - time: 0.5833333
      value: {fileID: 21300000, guid: afa4f316d143b558d89746cd5729eb88, type: 3}
    - time: 0.6666667
      value: {fileID: 21300000, guid: 2017d431aa45aef4b86efb0b3d7eeecc, type: 3}
    - time: 0.75
      value: {fileID: 21300000, guid: d2a5354b9070109ac9725c6e8649ead5, type: 3}
    - time: 0.8333333
      value: {fileID: 21300000, guid: 2cf220374e75a92dca778ad156dac843, type: 3}
    - time: 0.9166667
      value: {fileID: 21300000, guid: 908e2965840b7b655aebaf80a1ddc495, type: 3}
    attribute: m_Sprite
    path: 
    classID: 212
    script: {fileID: 0}
  m_SampleRate: 12
  m_WrapMode: 0
  m_Bounds:
    m_Center: {x: 0, y: 0, z: 0}
    m_Extent: {x: 0, y: 0, z: 0}
  m_ClipBindingConstant:
    genericBindings:
    - serializedVersion: 2
      path: 0
      attribute: 0
      script: {fileID: 0}
      typeID: 212
      customType: 23
      isPPtrCurve: 1
    pptrCurveMapping:
    - {fileID: 21300000, guid: 087a82ca46087edbcb949ba3081474d8, type: 3}
    - {fileID: 21300000, guid: f03eab46c5bafd5e2bcedd51844e122a, type: 3}
    - {fileID: 21300000, guid: 899c03119a50da90294cbe3f34d754e5, type: 3}
    - {fileID: 21300000, guid: a130ea9cbc7df48a48b5f2507c195f07, type: 3}
    - {fileID: 21300000, guid: 01afaf9cb6d9ddf1fa017506bcec0fcb, type: 3}
    - {fileID: 21300000, guid: f3984c2a9ce61015eaedb09825fd7b3b, type: 3}
    - {fileID: 21300000, guid: a653cb53232619f608b3cb8ba4e2cf5b, type: 3}
    - {fileID: 21300000, guid: afa4f316d143b558d89746cd5729eb88, type: 3}
    - {fileID: 21300000, guid: 2017d431aa45aef4b86efb0b3d7eeecc, type: 3}
    - {fileID: 21300000, guid: d2a5354b9070109ac9725c6e8649ead5, type: 3}
    - {fileID: 21300000, guid: 2cf220374e75a92dca778ad156dac843, type: 3}
    - {fileID: 21300000, guid: 908e2965840b7b655aebaf80a1ddc495, type: 3}
  m_AnimationClipSettings:
    serializedVersion: 2
    m_AdditiveReferencePoseClip: {fileID: 0}
    m_AdditiveReferencePoseTime: 0
    m_StartTime: 0
    m_StopTime: 1
    m_OrientationOffsetY: 0
    m_Level: 0
    m_CycleOffset: 0
    m_HasAdditiveReferencePose: 0
    m_LoopTime: 1
    m_LoopBlend: 0
    m_LoopBlendOrientation: 0
    m_LoopBlendPositionY: 0
    m_LoopBlendPositionXZ: 0
    m_KeepOriginalOrientation: 0
    m_KeepOriginalPositionY: 1
    m_KeepOriginalPositionXZ: 0
    m_HeightFromFeet: 0
    m_Mirror: 0
  m_EditorCurves: []
  m_EulerEditorCurves: []
  m_HasGenericRootTransform: 0
  m_HasMotionFloatCurves: 0
  m_Events: []
