%YAML 1.1
%TAG !u! tag:unity3d.com,2011:
--- !u!78 &1
TagManager:
  serializedVersion: 2
  tags:
  - enemy
  - roundButton
  - bullet
  layers:
  - Default
  - TransparentFX
  - Ignore Raycast
  - 
  - Water
  - UI
  - 
  - 
  - 
  - 
  - 
  - 
  - 
  - 
  - 
  - 
  - 
  - 
  - 
  - 
  - 
  - 
  - 
  - 
  - 
  - 
  - 
  - 
  - 
  - 
  - 
  - 
  m_SortingLayers:
  - name: Default
    uniqueID: 0
    locked: 0
  - name: hill
    uniqueID: 3058491425
    locked: 0
  - name: ground4
    uniqueID: 2309433693
    locked: 0
  - name: ground3
    uniqueID: 4032422867
    locked: 0
  - name: house
    uniqueID: 3621999051
    locked: 0
  - name: front layer
    uniqueID: 1383276631
    locked: 0
